<svg width="19" height="12" viewBox="0 0 19 12" fill="none" xmlns="http://www.w3.org/2000/svg">
<path fill-rule="evenodd" clip-rule="evenodd" d="M10.2056 11.0452C10.2056 11.0452 10.5256 11.0096 10.69 10.8296C10.8411 10.6652 10.8367 10.3552 10.8367 10.3552C10.8367 10.3552 10.8145 8.90631 11.4767 8.69298C12.13 8.48187 12.9667 10.093 13.8545 10.713C14.5267 11.1819 15.0367 11.0796 15.0367 11.0796L17.4111 11.0463C17.4111 11.0463 18.6522 10.9674 18.0634 9.9752C18.0156 9.89409 17.7211 9.24076 16.2989 7.89743C14.81 6.49298 15.01 6.72076 16.8022 4.29076C17.8945 2.81076 18.3311 1.90743 18.1945 1.52076C18.0645 1.15187 17.2611 1.24965 17.2611 1.24965L14.5878 1.26632C14.5878 1.26632 14.39 1.23854 14.2434 1.32854C14.0989 1.41632 14.0078 1.61965 14.0078 1.61965C14.0078 1.61965 13.5834 2.76409 13.0189 3.73854C11.83 5.79409 11.3534 5.90298 11.1589 5.77409C10.7067 5.47743 10.82 4.57965 10.82 3.94298C10.82 1.95076 11.1167 1.12076 10.2411 0.906316C9.95002 0.834093 9.73668 0.787426 8.99335 0.779649C8.04002 0.769649 7.23224 0.782982 6.77557 1.01076C6.47113 1.16187 6.23668 1.49965 6.38002 1.51854C6.55668 1.54298 6.95668 1.62854 7.16891 1.92187C7.44224 2.30076 7.43224 3.15187 7.43224 3.15187C7.43224 3.15187 7.59002 5.49632 7.06557 5.78631C6.70446 5.98631 6.21002 5.57854 5.14891 3.71409C4.60557 2.75965 4.19446 1.70298 4.19446 1.70298C4.19446 1.70298 4.11668 1.50743 3.97446 1.40076C3.80335 1.27298 3.56335 1.23298 3.56335 1.23298L1.02335 1.24965C1.02335 1.24965 0.64224 1.26076 0.50224 1.42854C0.377795 1.57854 0.49224 1.88854 0.49224 1.88854C0.49224 1.88854 2.48113 6.61965 4.73335 9.00298C6.7978 11.1885 9.14224 11.0452 9.14224 11.0452H10.2056Z" fill="white"/>
</svg>
