<svg width="254" height="71" viewBox="0 0 254 71" fill="none" xmlns="http://www.w3.org/2000/svg">
<rect width="253.126" height="70.4358" rx="8" fill="white"/>
<path d="M24 20.9897C24.9338 29.7575 24.1458 38.7278 24.1458 47.5518C24.1458 47.8966 24.0541 48.181 24.4731 48.161C29.2943 47.9315 34.1422 47.8337 38.9678 47.8337C40.05 47.8337 41.1321 47.8337 42.2142 47.8337C42.7566 47.8337 43.0712 48.0311 42.969 47.3153C42.9181 46.9595 42.7295 43.752 42.4597 43.7416C38.7798 43.6001 33.1831 43.9053 29.5294 43.9053" stroke="black" stroke-linecap="round" stroke-linejoin="round"/>
<path d="M24 20.8261C24.5839 20.8261 29.7289 20.6439 29.7289 20.9898C29.7289 27.7006 29.7289 35.2887 29.7289 42" stroke="black" stroke-linecap="round" stroke-linejoin="round"/>
<path d="M32 21C32.0849 27.4555 31.5 34.5432 31.5 41C31.5 41.748 31.9885 42.0364 32.5 42C34.9885 42 38.2482 42 41 42C44.601 41.9636 44.4428 41.8272 44.6149 43.9781C44.7571 45.7551 44.624 47.4458 44.624 49.225C44.624 49.9491 43.8859 49.9616 43.3054 49.9616C37.3695 49.9616 31.3885 49.9616 25.4731 49.9616" stroke="black" stroke-linecap="round" stroke-linejoin="round"/>
<path d="M49.0793 21.1534C54.6076 21.1534 60.1037 20.3013 65.6113 20.9898C66.009 21.0395 65.775 23.4974 65.775 23.8451C65.775 24.6688 66.0748 25.4092 65.102 25.4092C61.9503 25.4092 58.8654 25.9002 55.7176 25.9002C55.054 25.9002 54.6445 25.7068 54.6445 26.464C54.6445 27.7521 54.4809 29.0034 54.4809 30.2833C54.4809 30.6042 54.2932 31.6291 54.7264 31.6291C56.7753 31.6291 58.8192 31.7928 60.8645 31.7928C61.3634 31.7928 63.0408 31.5042 63.447 31.8292C63.8911 32.1844 63.9355 36.2691 63.7744 36.2853C60.8521 36.5775 57.8993 36.5132 54.9719 36.6854C54.0788 36.7379 54.4809 42.1939 54.4809 43C54.4809 44 66.0453 43.0453 66.5 43.5C66.7944 43.7944 66.8617 47.5478 66.5 48C66.1383 48.4522 52.3322 47.8777 50 47.7518" stroke="black" stroke-linecap="round" stroke-linejoin="round"/>
<path d="M49.0792 22.6266C49.0792 26.9277 49.0792 31.2318 49.0792 35.5211C49.0792 39.1876 48.9155 42.8548 48.9155 46.5242" stroke="black" stroke-linecap="round" stroke-linejoin="round"/>
<path d="M67.9027 20.4987C67.9027 22.1267 68.0679 24.8551 67.7754 26.4638C67.6626 27.084 67.9321 27.3137 67.2389 27.4004C63.8565 27.8232 60.3579 27.2982 56.936 27.7007C56.629 27.7369 56.5464 29.4882 56.6177 29.7377C56.6177 29.7377 65.1022 29.7377 65.8842 30.5197C66.3645 31 65.8842 35.5376 65.8842 36.5M65.6751 38.1943C64.5 38.5 56.6383 37.9426 56.6177 38.5C56.6052 38.8373 56.1045 41.5 56.6177 41.5C60.6875 41.5 64.4835 41.249 68.5 41.5M49 50C58 50 62.2636 50.2901 67.7754 50C68.499 49.9619 68.5933 46.4939 68.5674 44" stroke="black" stroke-linecap="round" stroke-linejoin="round"/>
<path d="M72 48C75.1331 38.33 79.8121 26.6829 81.5 21" stroke="black" stroke-linecap="round" stroke-linejoin="round"/>
<path d="M81.5 21C83.0287 21 88 21 88 21" stroke="black" stroke-linecap="round" stroke-linejoin="round"/>
<path d="M88 21C89.4742 26.5281 91.6629 31.999 93.4909 37.4308C94.5353 40.5342 96 44 97.2556 47.9974" stroke="black" stroke-linecap="round" stroke-linejoin="round"/>
<path d="M72 47.9795C72.759 47.9795 75.5 47.9795 76.5 47.9795" stroke="black" stroke-linecap="round" stroke-linejoin="round"/>
<path d="M91.5 48C92.7661 48 95.5 48 97 48" stroke="black" stroke-linecap="round" stroke-linejoin="round"/>
<path d="M76.5 48C76.8046 46.7613 79.0764 42.0463 80 41.1228C80.5 40.6228 87.5 41.1227 88.2351 41.1228C88.9703 41.1228 90.8851 46.7701 91.5 48" stroke="black" stroke-linecap="round" stroke-linejoin="round"/>
<path d="M84.5 25.5C84.1613 26.5359 80.5182 36.285 81.0002 36.285C81.873 36.285 87 36.285 88.0624 36.285C89.5 36.285 87.5 32.5 85.5 27" stroke="black" stroke-linecap="round" stroke-linejoin="round"/>
<path d="M90 20.5C92.9419 30.3554 96.0342 38.7368 99.0908 48.5178C99.2137 48.9111 99.5 49.6299 99.5 50C99.5 50.1754 92.3356 50 92 50" stroke="black" stroke-linecap="round" stroke-linejoin="round"/>
<path d="M72 50C72.6692 50 77.6248 50.478 77.8835 49.5728C78.2358 48.3395 80.7522 43.2136 81.5 43C82.6914 42.6596 89 43 89 43" stroke="black" stroke-linecap="round" stroke-linejoin="round"/>
<path d="M82.5 36C83.161 34.0171 84 31.5001 84.5 29.5" stroke="black" stroke-linecap="round" stroke-linejoin="round"/>
<path d="M103.742 20.8567C103.742 27.9579 103.885 35.0522 103.885 42.1565C103.885 44.1049 103.742 46.0498 103.742 48" stroke="black" stroke-linecap="round" stroke-linejoin="round"/>
<path d="M104.744 20.5704C108.254 20.4755 112.235 19.6728 115.705 20.4988C123.757 22.4159 127.921 28.1314 127.357 36.6049C126.981 42.2461 122.362 45.9373 117.5 47.5C115 48.3035 109.389 48 105.5 48" stroke="black" stroke-linecap="round" stroke-linejoin="round"/>
<path d="M108.753 25C108.753 31.1668 108.896 37.3328 108.896 43.5" stroke="black" stroke-linecap="round" stroke-linejoin="round"/>
<path d="M110.185 25.0085C115.692 25.0085 120.883 25.3071 121.956 31.8645C123.237 39.6907 117 44.5 109 43.5" stroke="black" stroke-linecap="round" stroke-linejoin="round"/>
<path d="M111.185 25.5C111.292 30.8569 110.5 35.1685 111.185 41.5" stroke="black" stroke-linecap="round" stroke-linejoin="round"/>
<path d="M120.206 20.2841C123.262 21.0175 126.697 23.8298 127.985 26.7742C132.772 37.7162 126.436 49.9193 114.265 49.9193C111.107 49.9193 106.641 49.9193 103.5 49.9193" stroke="black" stroke-linecap="round" stroke-linejoin="round"/>
<path d="M133.929 20.5C133.929 25.1739 133.929 30.0907 133.929 34.7647C133.929 39.0855 133.506 43 133.929 48" stroke="black" stroke-linecap="round" stroke-linejoin="round"/>
<path d="M134 20.5C139.001 20.5 143.985 20.2985 148.981 20.2985C149.629 20.2985 150.688 19.9924 150.703 20.8663C150.721 21.9285 150.993 23.4225 150.697 24.4582C150.606 24.7783 149.191 24.7359 148.981 24.7359C145.962 24.7359 142.947 24.8532 139.928 24.8532C139.433 24.8532 139.372 24.8579 139.372 25.3963C139.372 27.5737 139.5 29.5 139.5 32" stroke="black" stroke-linecap="round" stroke-linejoin="round"/>
<path d="M139.5 32C140.207 32 148.259 31.9963 148.259 32.6047C148.259 33.0248 148.551 36.0636 148.284 36.0731C146.589 36.1336 144.903 36.2953 143.205 36.2953C141.955 36.2953 140.703 36.4064 139.446 36.4064C138.946 36.4064 139.5 43.178 139.5 44" stroke="black" stroke-linecap="round" stroke-linejoin="round"/>
<path d="M139.5 44C143.307 44 147.188 43.8767 150.938 43.8767C151.465 43.8767 151.493 43.9448 151.493 44.5C151.493 44.8164 151.832 47.8346 151.493 47.8484C149.715 47.921 147.775 47.7205 146 47.8484C143.5 47.8484 139.038 47.9595 135.5 47.9595" stroke="black" stroke-linecap="round" stroke-linejoin="round"/>
<path d="M152.5 20C152.526 21.7385 152.5 24.2602 152.5 26C152.5 27.1123 141.178 25.7458 141.15 26.9268C141.12 28.1259 141.01 28.8148 141.15 30C141.186 30.3106 148.336 30.5187 149.703 30.5187C150.016 30.5187 150.037 30.5266 150.037 30.8396C150.037 32.4039 150.5 37.1737 149.703 37.5C148.773 37.8812 142.083 37.7906 142 38.5C141.85 39.7742 142 41.2092 142 42.5" stroke="black" stroke-linecap="round" stroke-linejoin="round"/>
<path d="M144 42.5C144.674 42.491 153.465 41.9033 153.5 42.5C153.615 44.4594 153.097 46.9347 153.678 48.8236C153.841 49.3533 152.863 49.3637 152.524 49.3914C146.285 49.9006 140.051 49.3259 133.832 49.8234" stroke="black" stroke-linecap="round" stroke-linejoin="round"/>
<path d="M204.935 21.0234C205.011 25.9832 205.001 30.9471 205.143 35.9054C205.263 40.1065 205.28 44.2977 205.28 48.5" stroke="#2185FB" stroke-linecap="round" stroke-linejoin="round"/>
<path d="M205 21C205.936 20.9064 219.513 20.9737 219.5 21C220.333 21.6667 222 23.1 222 23.5C222 23.9 222 25.5 222 26" stroke="#2185FB" stroke-linecap="round" stroke-linejoin="round"/>
<path d="M210 25.7106C211.171 25.4928 213.085 25.5935 214.27 25.5935C219.093 25.5935 222 26 222 26" stroke="#2185FB" stroke-linecap="round" stroke-linejoin="round"/>
<path d="M210 26C210 31.5 210.5 38 210.084 43.5677C210.042 43.9212 210.174 43.771 210.507 43.7044C213.78 43.0498 218.207 43.7044 221.5 43.7044" stroke="#2185FB" stroke-linecap="round" stroke-linejoin="round"/>
<path d="M222 46L219.654 48.2549C219.654 48.2549 214.364 48.4437 212.968 48.4437C210.478 48.4437 207.989 48.5 205.5 48.5" stroke="#2185FB" stroke-linecap="round" stroke-linejoin="round"/>
<path d="M222 27.5C222.031 31.6723 222.16 34.9999 222.16 39.1604C222.16 40.8743 222.305 43.684 222.16 46C222.767 45.5402 226.52 41.9798 226.939 41.3477C227.232 40.905 226.827 27.7008 226.659 27.4097C226.18 26.5811 220.335 21.676 219.5 21" stroke="#2185FB" stroke-linecap="round" stroke-linejoin="round"/>
<path d="M228.931 27C228.931 30 229.371 42.0206 228.931 42.5586C226.898 45.0433 224.5 47 222 50" stroke="#2185FB" stroke-linecap="round" stroke-linejoin="round"/>
<path d="M222 20.5C224.5 22.5 226.5 24.5 229 27" stroke="#2185FB" stroke-linecap="round" stroke-linejoin="round"/>
<path d="M211.966 26.9996C211.796 29.6702 212.083 32.3894 212.083 35.072C212.083 36.287 211.966 37.4889 211.966 38.7046C211.966 39.7636 211.966 40.8226 211.966 41.8815" stroke="#2185FB" stroke-linecap="round" stroke-linejoin="round"/>
<path d="M204.935 50.4358C210.461 50.4358 220.5 50.4358 222 50" stroke="#2185FB" stroke-linecap="round" stroke-linejoin="round"/>
<path d="M194.263 20.9062C195.808 20.7245 197.374 20.9062 198.925 20.9062C199.007 20.9062 198.847 22.1899 198.847 22.3449C198.847 30.7288 199.5 39.6128 199.5 48C199.5 48.3328 195.012 48 194.5 48" stroke="#2185FB" stroke-linecap="round" stroke-linejoin="round"/>
<path d="M193.912 22.1952C193.912 27.2287 193.878 32.2566 194.12 37.2855C194.269 40.3927 194.498 43.4607 194.498 46.5689" stroke="#2185FB" stroke-linecap="round" stroke-linejoin="round"/>
<path d="M200.5 21C200.5 28.0448 201 32.96 201 40C201 43 201.35 49.5215 200.774 49.6496C198.698 50.1111 194.5 50 194.5 50" stroke="#2185FB" stroke-linecap="round" stroke-linejoin="round"/>
<path d="M157.591 20.8539C157.591 25.407 157.591 29.9351 157.591 34.5C157.591 36.7337 157.398 46.2786 157.591 48.5" stroke="black" stroke-linecap="round" stroke-linejoin="round"/>
<path d="M163 38C163 40.5682 163 43.2837 163 46C163 46.4666 163 47.8131 163 48.5" stroke="black" stroke-linecap="round" stroke-linejoin="round"/>
<path d="M157.5 20.5C167.5 19.5 178.262 20.1391 176.809 30.673C176.523 32.7514 175.5 35 172.5 36.5" stroke="black" stroke-linecap="round" stroke-linejoin="round"/>
<path d="M172.5 36.5C174.725 40.4097 176.5 43.5 179.5 48.5" stroke="black" stroke-linecap="round" stroke-linejoin="round"/>
<path d="M167.7 38.1838C168.634 39.8537 172.777 48.3887 173.5 48.5C175.018 48.7336 178 48.5 179.5 48.5" stroke="black" stroke-linecap="round" stroke-linejoin="round"/>
<path d="M163 38C164.432 37.8586 166.06 38 167.5 38" stroke="black" stroke-linecap="round" stroke-linejoin="round"/>
<path d="M157.702 48.515C159.371 48.515 161.332 48.5 163 48.5" stroke="black" stroke-linecap="round" stroke-linejoin="round"/>
<path d="M162.59 25.0753C169.5 23.5 173.228 26.6492 172.094 30.4631C171.259 33.2702 167 33.5 162.812 32.8515C162.812 30.2561 162.653 27.6691 162.59 25.0753Z" stroke="black" stroke-linecap="round" stroke-linejoin="round"/>
<path d="M165.145 26.0751C165.145 27.7692 165.187 29.4564 165.262 31.1482C165.28 31.5568 165.262 32.1855 165.262 32.7581" stroke="black" stroke-linecap="round" stroke-linejoin="round"/>
<path d="M174.5 20.5C180.5 24.5 179.922 32.2939 175.476 36.7396C174.706 37.5095 178.895 43.5 182 49" stroke="black" stroke-linecap="round" stroke-linejoin="round"/>
<path d="M164.812 38.517C164.812 41.7035 164.701 44.8847 164.701 48.0706" stroke="black" stroke-linecap="round" stroke-linejoin="round"/>
<path d="M157.561 50.331C159.74 50.331 161.918 50.331 164.096 50.331" stroke="black" stroke-linecap="round" stroke-linejoin="round"/>
<path d="M174.233 50.1976C176.179 50.1976 178.069 50.0718 180.005 49.9383C180.341 49.9151 181.236 50.0676 181.168 49.9308" stroke="black" stroke-linecap="round" stroke-linejoin="round"/>
</svg>
