<svg width="375" height="170" viewBox="0 0 375 170" fill="none" xmlns="http://www.w3.org/2000/svg">
<path d="M-4 1C22 34 160 59.9247 219 65C278 70.0753 364 97 380 169" stroke="#DFE8F0" stroke-width="3" stroke-dasharray="12 16"/>
</svg>
