<svg width="27" height="29" viewBox="0 0 27 29" fill="none" xmlns="http://www.w3.org/2000/svg">
<path d="M10.6394 28.1304C7.33783 25.8493 4.43476 22.9783 1.45154 20.3037" stroke="black" stroke-width="1.2" stroke-linecap="round" stroke-linejoin="round"/>
<path d="M14.7229 24.0471C11.264 16.7169 8.39595 9.16092 5.53503 1.58789" stroke="black" stroke-width="1.2" stroke-linecap="round" stroke-linejoin="round"/>
<path d="M23.5785 24.295C24.4814 18.3287 25.0431 12.3705 25.6044 6.36084" stroke="black" stroke-width="1.2" stroke-linecap="round" stroke-linejoin="round"/>
</svg>
