<svg width="121" height="257" viewBox="0 0 121 257" fill="none" xmlns="http://www.w3.org/2000/svg">
<path d="M51.5667 131L58.0667 115L62.0667 118.5L66.0667 114C70.0667 117.6 77.0667 128.167 80.0667 133C78.8667 134.6 78.5667 139 78.5667 141L77.5667 145.5V154C77.1666 167.6 75.7333 175.333 75.0667 177.5C71.5667 189.167 64.4667 212.8 64.0667 214C63.6666 215.2 57.9 232.833 55.0667 241.5L51.0667 241C45.4667 241 44.7333 239.333 45.0667 238.5L47.0667 225L48.5667 214.5L50.5667 206L51.0667 201.5V199V192L52.5667 184L54.5667 171.5V163L56.0667 142.5C55.2333 143.5 52.3666 146.6 47.5667 151C41.5667 156.5 39.5667 159.5 38.0667 163C36.8666 165.8 35.9 173.833 35.5667 177.5C35.5667 186.5 34.0667 191.5 32.5667 197C31.0667 202.5 30.5667 208 30.5667 211C30.5667 213.4 30.9 218.667 31.0667 221C29.5667 219.833 25.8667 217.3 23.0667 216.5C20.2667 215.7 15.9 216.5 14.0667 217L14.5667 214C15.4 209.333 17.1667 199.5 17.5667 197.5C17.9667 195.5 17.7333 192 17.5667 190.5C17.2333 185.167 16.5667 172.7 16.5667 165.5C16.5667 158.3 18.2333 154.167 19.0667 153L24.5667 146L30.5667 141.5L38.0667 139.5L45.5667 136.5L50.0667 135L51.5667 131Z" fill="white"/>
<path d="M25.5667 67.5L27.0667 65L41.5667 56.8436C39.4 66.0624 34.9667 84.8 34.5667 86C34.1667 87.2 33.7333 95.1667 33.5667 99L42.0667 98.5L41.0667 101.5L40.5667 108.5V114H37.5667L34.0667 113.5H29.5667H23.0667L15.5667 108.5L16.0667 103L18.5667 101.5L17.5667 98.5L18.5667 97V95L19.5667 93L19.0667 89L20.5667 87.5L21.0667 82L23.0667 79.5V76L25.5667 70.5V67.5Z" fill="white"/>
<path d="M39.1931 31.8622C38.5169 37.8633 39.3246 44.1302 42.3228 49.4495C43.5784 51.6772 45.5024 54.795 48.3883 54.795C52.8821 54.795 56.5506 49.8585 57.1959 45.7936C57.2459 45.4785 57.427 42.7051 57.6529 42.9685C59.1071 44.6651 60.3413 42.7217 61.2396 41.3621C62.0236 40.1755 63.2247 36.9647 62.2228 35.6289C60.8284 33.7697 58.6992 36.9179 57.8883 37.8447" stroke="black" stroke-width="1.2" stroke-linecap="round" stroke-linejoin="round"/>
<path d="M48.0664 39.9999C49.3456 38.7847 51.5664 38 53.5664 38.9999" stroke="black" stroke-width="1.2" stroke-linecap="round" stroke-linejoin="round"/>
<path d="M50.1609 39.5896C50.5991 41.9753 51.158 41.0975 51.158 39.3403" stroke="black" stroke-width="1.2" stroke-linecap="round" stroke-linejoin="round"/>
<path d="M39.6917 39.3404C41.0667 39 42.6545 39.0879 44.0667 40.5" stroke="black" stroke-width="1.2" stroke-linecap="round" stroke-linejoin="round"/>
<path d="M41.878 39.708C41.878 39.8629 41.3993 42.4403 41.8781 41.8418C42.3553 41.2453 42.2961 40.7334 42.3628 40" stroke="black" stroke-width="1.2" stroke-linecap="round" stroke-linejoin="round"/>
<path d="M37.6974 35.3521C36.5508 33.9905 35.3655 32.4543 36.3125 30.6159C37.0759 29.134 39.3012 29.0103 40.7717 29.1757C42.4817 29.3681 43.8244 30.245 45.4524 30.6159C47.6313 31.1124 49.957 31.1583 52.155 30.8652" stroke="black" stroke-width="1.2" stroke-linecap="round" stroke-linejoin="round"/>
<path d="M53.4014 30.1175C53.9176 28.9598 54.365 27.7753 55.1463 26.7662C55.448 26.3765 55.7428 26.0844 55.8941 25.6306" stroke="black" stroke-width="1.2" stroke-linecap="round" stroke-linejoin="round"/>
<path d="M55.8939 24.3843C51.4367 20.0622 44.6338 21.9051 40.9377 26.1292" stroke="black" stroke-width="1.2" stroke-linecap="round" stroke-linejoin="round"/>
<path d="M57.3896 26.1292C60.4321 27.6964 61.0524 30.1022 61.378 33.358" stroke="black" stroke-width="1.2" stroke-linecap="round" stroke-linejoin="round"/>
<path d="M53.6506 32.1115C54.8936 34.0075 55.4886 35.0278 57.6389 35.6012" stroke="black" stroke-width="1.2" stroke-linecap="round" stroke-linejoin="round"/>
<path d="M46.9204 50.3082C48.5208 50.0278 49.7582 49.9631 50.9087 48.8126" stroke="black" stroke-width="1.2" stroke-linecap="round" stroke-linejoin="round"/>
<path d="M45.4248 47.317C42.7444 46.1402 45.2875 44.6059 45.8957 42.7055C46.7094 40.1625 45.517 37.9893 43.4307 36.5984" stroke="black" stroke-width="1.2" stroke-linecap="round" stroke-linejoin="round"/>
<path d="M56.8052 66.5189C56.5061 68.7624 60.6761 68.3754 59.0664 71.5C58.7624 72.0902 56.6978 76.6314 56.0664 76C55.4038 75.3374 51.4393 72.8267 51.5705 71.8643C51.6923 70.9716 53.1014 69.6946 53.6062 69.0116C54.229 68.1691 54.2525 67.3356 53.9587 66.5189M56.8052 66.5189C56.8622 66.0911 58.8395 61.074 58.4393 61.0073C56.7032 60.7179 53.6062 60 51.0664 62.5C52.0143 63.7639 53.4543 65.1166 53.9587 66.5189M56.8052 66.5189C56.4871 66.1919 55.4726 65.734 53.9587 66.5189" stroke="black" stroke-width="1.2" stroke-linecap="round" stroke-linejoin="round"/>
<path d="M42.955 52.8689C41.7574 57.1195 40.5305 61.3675 39.6181 65.6912C39.4477 66.4983 38.0514 70.849 39.0138 71.7082C39.6999 72.3209 44.2224 70.5069 44.2688 71.6819C44.4195 75.4994 42.2949 79.5371 42.8762 83.3481C43.1137 84.9049 45.2214 86.5147 46.1869 87.5521C48.0744 89.5803 50.0102 91.5568 51.9411 93.5429" stroke="black" stroke-width="1.2" stroke-linecap="round" stroke-linejoin="round"/>
<path d="M60.2178 48.3759C62.7664 49.7588 65.4032 50.7832 68.0346 51.9756C69.1037 52.46 68.9128 52.8812 69.2827 53.9199C69.9094 55.6795 70.8651 57.3406 71.3847 59.1355C71.6022 59.8868 70.8688 60.0356 70.36 60.4624C69.9125 60.8377 66.475 64.0029 67.4697 64.2723C69.4888 64.8192 72.4163 66.039 73.986 67.4516C75.1332 68.4841 74.1011 69.6245 73.6969 70.9988C72.0573 76.5736 70.0236 81.746 67.2332 86.8427C65.9835 89.1254 64.6366 91.3528 63.4759 93.6742C63.3206 93.9848 62.5825 95.3078 62.5825 95.1982" stroke="black" stroke-width="1.2" stroke-linecap="round" stroke-linejoin="round"/>
<path d="M43.9009 54.7608C45.257 61.8289 47.4955 68.5024 50.023 75.2423C51.8747 80.1802 54.3321 84.7009 56.5261 89.4703C56.984 90.4657 57.4499 91.5056 57.6297 92.5839C57.7407 93.2502 58.1413 91.9954 58.142 91.9927C58.8544 89.4626 59.4519 86.8723 59.955 84.2941C61.7457 75.1167 62.4419 65.9211 61.8205 56.6001C61.6676 54.3057 60.6907 47.4953 60.6907 49.7948" stroke="black" stroke-width="1.2" stroke-linecap="round" stroke-linejoin="round"/>
<path d="M40.3538 57.3621C38.1361 58.939 35.7505 60.2674 33.4697 61.75C31.5965 62.9676 29.4969 63.7455 27.6366 64.9293C27.002 65.3331 26.0847 66.5111 25.6922 67.1101C25.248 67.7882 25.4951 68.7797 25.4426 69.5406C25.3477 70.9169 24.8295 72.0556 24.142 73.2323C23.3461 74.5944 22.8545 75.6261 22.8545 77.2261C22.8545 78.0064 23.156 79.5442 22.6443 80.2215C21.9927 81.0839 21.1058 81.415 20.989 82.6125C20.8451 84.0871 21.2509 85.7711 20.6737 87.1844C20.2578 88.2025 19.0092 88.1962 19.084 89.4309C19.1483 90.4912 19.7978 91.8511 19.4387 92.8861C19.1834 93.6219 18.3221 94.0959 18.4009 94.9618C18.4796 95.8276 19.0584 96.2614 18.5454 97.1689C18.1318 97.9007 17.5146 98.2967 17.7834 99.2184C18.0066 99.9836 18.9034 100.93 18.3352 101.701C17.8211 102.399 16.8693 102.032 16.4171 102.687C15.8922 103.447 15.7602 104.23 15.7602 105.13C15.7602 106.901 14.4589 108.844 16.601 109.623C19.4231 110.65 21.4575 113.241 24.5361 113.735C26.3584 114.028 28.1981 113.658 30.0276 113.643C31.8885 113.629 33.7501 113.643 35.6111 113.643C36.6341 113.643 39.2468 114.411 40.2224 113.854C40.7036 113.579 40.3464 110.95 40.3538 110.49C40.3947 107.935 40.7019 105.321 41.0632 102.792C41.2835 101.25 41.7421 99.9744 42.193 98.509C42.2908 98.1913 35.0667 99.2184 33.5667 99" stroke="black" stroke-width="1.2" stroke-linecap="round" stroke-linejoin="round"/>
<path d="M33.5667 95C34.095 93.7741 34.2503 81.3604 35.0723 87.0398C35.6038 90.712 37.607 93.4344 38.4618 96.8536" stroke="black" stroke-width="1.2" stroke-linecap="round" stroke-linejoin="round"/>
<path d="M70.386 51.6865C73.3012 51.4936 76.1793 51.1461 79.0831 50.8457C80.0175 50.749 81.5609 50.3146 82.4988 50.5567C83.5835 50.8366 84.8559 52.6097 85.1001 53.6309C85.5585 55.5479 86.1029 54.6816 87.8064 54.5768C89.6627 54.4625 86.1359 58.4343 88.2006 57.6772C88.5279 57.5572 90.6108 56.4879 90.6836 57.0335C90.733 57.404 90.0652 58.2 90.8806 58.0188C91.6008 57.8588 92.3556 57.1032 93.114 57.2043C94.2707 57.3585 95.617 58.7048 96.5823 59.2669C98.9802 60.6631 101.663 61.274 104.32 61.9732C105.149 62.1912 104.912 61.5707 104.912 60.8565C104.912 58.3953 104.785 55.9229 104.334 53.4995C104.077 52.1232 103.79 50.7526 103.545 49.3743C103.522 49.2458 103.361 48.2592 103.598 48.2445C103.95 48.2224 104.452 49.1142 104.623 49.3217C105.558 50.4607 106.414 51.727 107.776 52.3959C110.136 53.5556 113.462 54.5402 116.131 54.2352C118.624 53.9502 117.745 52.8594 116.696 50.9114C115.833 49.3091 115.11 47.5801 113.924 46.1819C113.017 45.1127 113.705 45.8101 114.489 46.2475C115.473 46.797 118.507 46.8757 119.048 47.9029C119.968 49.6524 119.648 52.544 119.757 54.4191C119.982 58.3016 119.825 62.8212 118.969 66.6371C118.47 68.86 117.474 70.9376 117.221 73.2059C116.871 76.3638 114.068 75.9021 111.402 76.2801C107.537 76.8278 103.601 77.8671 99.6828 77.226C96.8682 76.7654 94.0297 76.3149 91.2222 75.8071C89.6281 75.5188 87.9999 74.9239 86.5715 74.1518C85.9901 73.8375 84.8129 72.2139 84.5614 73.4292C83.7762 77.2246 82.682 81.1939 82.4726 85.0691C82.1644 90.7709 84.3531 95.8459 85.3628 101.373C86.4525 107.337 87.0272 113.499 87.5043 119.542C87.7283 122.38 87.6039 125.226 87.6619 128.068C87.7227 131.046 88.4314 133.934 88.6472 136.897C88.7942 138.915 88.7941 140.96 89.0676 142.966C89.2445 144.264 89.7029 145.463 89.8296 146.776C89.9691 148.222 90.3077 149.64 90.4339 151.085C90.5907 152.88 90.4605 154.643 90.8412 156.419C91.2547 158.349 91.3915 160.312 91.8002 162.239C92.0916 163.613 92.6148 164.954 92.6148 166.378" stroke="black" stroke-width="1.2" stroke-linecap="round" stroke-linejoin="round"/>
<path d="M63.7649 110.806C69.3597 117.761 74.9572 124.834 79.7665 132.364C81.7733 135.507 83.996 138.782 85.4025 142.244C86.5371 145.037 88.5223 147.533 89.0679 150.534" stroke="black" stroke-width="1.2" stroke-linecap="round" stroke-linejoin="round"/>
<path d="M53.6426 58.0786C56.7097 54.892 58.8 50.6261 59.1049 46.2039" stroke="black" stroke-width="1.2" stroke-linecap="round" stroke-linejoin="round"/>
<path d="M48.0615 56.2975C49.307 57.1824 50.8308 57.4843 52.2177 58.0787" stroke="black" stroke-width="1.2" stroke-linecap="round" stroke-linejoin="round"/>
<path d="M55.5667 58.5C55.7549 58.5615 59.1881 58.5615 59.3425 58.2629C59.8468 57.288 59.3425 54.0403 59.3425 53" stroke="black" stroke-width="1.2" stroke-linecap="round" stroke-linejoin="round"/>
<path d="M46.5664 58C46.5664 58.9311 47.2829 61.5 48.0664 61.5C48.796 61.5 50.8973 60.0124 51.5664 59.5" stroke="black" stroke-width="1.2" stroke-linecap="round" stroke-linejoin="round"/>
<path d="M64.5667 69.5C64.8568 69.2322 66.3107 70.3358 66.5667 70.5C66.7273 69.8574 66.3948 69.6666 66.9821 69.2277C67.2833 69.0025 67.837 68.7975 68.0904 69.1881C68.3231 69.5468 68.4317 70.008 68.3674 70.4283C68.3667 70.4333 68.2347 70.8505 68.3411 70.8505C68.8946 70.8505 69.1791 69.8988 69.9441 70.336C70.6608 70.7455 69.7345 71.7945 69.4494 72.1172C69.3005 72.2857 68.9172 72.5083 68.8292 72.7241C68.7753 72.8565 69.4427 72.981 69.5153 73.0144C70.278 73.3654 68.9607 73.9741 68.7237 74.0435C68.3119 74.1642 67.479 74.0451 67.7605 74.5581C68.0398 75.0669 68.5436 76.2654 67.6945 76.6428C67.4856 76.7356 66.9789 76.4655 66.8699 76.2865C66.8302 76.2212 66.8261 75.6325 66.7248 75.6862C66.0666 76.0346 65.8552 77.1019 64.937 77.1178C64.3409 77.128 65.3249 75.2259 65.412 75.0067C65.5853 74.5704 64.5512 74.6572 64.2443 74.4525C63.4383 73.9152 65.051 72.7633 65.4802 72.4568L65.4845 72.4536C66.1819 71.9555 64.5512 71.5316 64.2443 71C64.0243 70.6189 64.2555 69.7872 64.5667 69.5Z" stroke="black" stroke-width="1.2" stroke-linecap="round" stroke-linejoin="round"/>
<path d="M44.7689 97.5316C43.9198 100.735 43.346 103.96 43.1928 107.275C43.1435 108.341 43.0925 109.409 43.0925 110.477C43.0925 110.74 43.0123 111.12 43.2215 111.329C43.5569 111.665 45.2903 110.746 45.6429 110.642C46.2502 110.462 47.8843 110.818 47.6488 109.961C46.9394 107.381 47.1682 104.848 47.5413 102.217C47.6858 101.198 47.9118 100.196 48.0643 99.1793C48.1301 98.7405 48.1378 98.2818 48.315 97.8683C48.3589 97.766 48.6764 97.0637 48.6016 96.9513C48.097 96.1946 45.6259 96.9885 45.0268 97.1448" stroke="black" stroke-width="1.2" stroke-linecap="round" stroke-linejoin="round"/>
<path d="M48.5085 98.0475C50.5418 97.6039 52.5898 97.0973 54.6694 96.9156C55.5639 96.8375 56.174 97.139 57.0335 97.2451C59.4543 97.544 61.5057 98.1255 63.7676 99.0075C65.3108 99.6092 66.8567 100.265 68.4528 100.698C69.1106 100.877 71.3604 102.548 69.5417 102.919C68.8631 103.057 67.7196 102.796 68.4671 103.793C69.1358 104.685 68.9957 105.053 67.894 105.469C67.288 105.698 66.6243 105.773 65.9884 105.885C65.6823 105.939 65.4153 105.965 65.7592 106.243C66.8917 107.158 64.3738 107.594 63.8536 107.79C63.4721 107.935 63.3974 108.07 63.653 108.349C64.0547 108.789 63.8799 108.966 63.4524 109.309C62.7249 109.894 61.7273 110.449 60.7731 110.427C59.9222 110.407 59.0566 110.112 58.2227 109.954C57.1989 109.759 56.1639 109.625 55.1423 109.424C53.8564 109.171 52.6513 108.741 51.3884 108.421C50.6595 108.236 49.8946 108.105 49.1819 107.876C48.8116 107.757 48.366 107.594 47.9927 107.719" stroke="black" stroke-width="1.2" stroke-linecap="round" stroke-linejoin="round"/>
<path d="M54.4402 105.269C54.827 105.269 55.2139 105.269 55.6007 105.269" stroke="black" stroke-width="1.2" stroke-linecap="round" stroke-linejoin="round"/>
<path d="M55.6008 103.979C56.0307 103.979 56.4605 103.979 56.8903 103.979" stroke="black" stroke-width="1.2" stroke-linecap="round" stroke-linejoin="round"/>
<path d="M56.7615 101.787C57.1822 101.72 57.5069 101.755 57.922 101.787" stroke="black" stroke-width="1.2" stroke-linecap="round" stroke-linejoin="round"/>
<path d="M57.4062 100.498C57.8405 100.575 58.2575 100.597 58.6958 100.627" stroke="black" stroke-width="1.2" stroke-linecap="round" stroke-linejoin="round"/>
<path d="M104.058 47.7742C103.67 46.7554 103.156 45.7524 102.847 44.7106C102.418 43.2647 101.947 41.6294 101.868 40.1185C101.823 39.2657 102.262 38.4856 102.452 37.6746C102.857 35.9482 102.81 34.1608 102.6 32.4135C102.559 32.0684 101.942 30.0508 102.72 30.4908C105.338 31.9706 105.268 36.1697 105.101 38.7451C105.033 39.7867 104.776 42.4405 106.467 41.6891" stroke="black" stroke-width="1.2" stroke-linecap="round" stroke-linejoin="round"/>
<path d="M110.397 37.7592C108.637 38.0465 107.152 36.4854 106.601 34.9068C105.896 32.8876 104.861 31.0009 104.72 28.8427C104.67 28.0722 104.501 26.4535 105.706 27.3074C106.686 28.0013 107.358 28.7251 108.594 28.5329C109.307 28.422 109.868 30.3405 110.115 30.7655C111.207 32.6404 112.686 34.2634 113.721 36.1675C114.177 37.0048 114.424 37.3113 114.193 38.3296C113.669 40.6465 111.918 42.6643 111.918 45.112" stroke="black" stroke-width="1.2" stroke-linecap="round" stroke-linejoin="round"/>
<path d="M112.299 47.3938C112.755 49.3286 113.507 51.0851 114.073 52.9718" stroke="black" stroke-width="1.2" stroke-linecap="round" stroke-linejoin="round"/>
<path d="M104.819 30.1527C105.934 30.6406 107.142 31.0401 108.369 31.0401" stroke="black" stroke-width="1.2" stroke-linecap="round" stroke-linejoin="round"/>
<path d="M106.087 32.8148C107.453 33.0363 108.646 33.1929 110.017 33.0684" stroke="black" stroke-width="1.2" stroke-linecap="round" stroke-linejoin="round"/>
<path d="M107.101 35.4772C108.068 35.5804 108.81 35.532 109.763 35.3505" stroke="black" stroke-width="1.2" stroke-linecap="round" stroke-linejoin="round"/>
<path d="M73.8582 13.2343C80.2796 14.8963 87.1322 17.216 92.0752 21.8607C94.4023 24.0474 96.4459 26.3439 98.4055 28.8633C99.2402 29.9365 99.9937 31.1797 100.917 32.1744C101.504 32.8057 101.571 33.6404 102.173 34.2422" stroke="black" stroke-width="1.2" stroke-linecap="round" stroke-linejoin="round"/>
<path d="M73.6299 13.2343C75.5512 12.7638 77.3008 12.4546 79.2878 12.5493C81.8401 12.6708 84.5558 14.1465 86.7725 15.3148C90.0032 17.0175 93.0736 19.4696 95.7288 21.9622C98.5067 24.57 101.368 27.609 103.087 31.0454" stroke="black" stroke-width="1.2" stroke-linecap="round" stroke-linejoin="round"/>
<path d="M84.1338 13.4627C86.5401 10.174 89.017 6.98909 91.5297 3.78328C92.2481 2.86664 92.9982 1.42724 94.1938 1.08117C95.5764 0.680921 96.8301 1.85203 97.8346 2.60349C101.094 5.04196 104.426 7.40209 107.869 9.58076C109.599 10.6752 111.731 11.3845 113.591 12.2702C116.902 13.8473 111.459 19.7306 110.495 21.2518C109.183 23.3241 108.187 26.199 106.055 27.6202" stroke="black" stroke-width="1.2" stroke-linecap="round" stroke-linejoin="round"/>
<path d="M86.6458 10.7225C91.787 15.521 98.36 18.579 104.888 21.0616C106.086 21.5171 106.996 22.1284 108.009 22.901C108.243 23.0799 109.059 23.7501 108.339 23.51" stroke="black" stroke-width="1.2" stroke-linecap="round" stroke-linejoin="round"/>
<path d="M33.7376 115.252C32.3865 117.835 31.6937 120.641 30.221 123.182C29.12 125.081 28.9695 126.733 29.1105 128.919C29.21 130.46 28.1848 131.548 27.7011 132.934C27.3396 133.97 27.2015 135.042 26.6475 136.009C25.8788 137.352 24.7963 138.494 23.9994 139.825C22.0689 143.048 20.6324 146.631 19.6855 150.261C19.3858 151.41 19.1504 152.578 18.7744 153.706C18.6446 154.095 19.174 152.989 19.3866 152.638C21.6857 148.842 24.7028 145.262 28.4983 142.9C32.1025 140.657 36.2386 139.979 40.2298 138.771C42.1426 138.192 43.9021 137.199 45.7822 136.522C46.9075 136.117 48.9763 135.906 49.8683 135.07C50.9538 134.052 51.3302 131.588 52.0181 130.258C52.9986 128.361 53.6719 126.316 54.6093 124.392C55.2355 123.106 59.4562 111.453 58.852 111.151" stroke="black" stroke-width="1.2" stroke-linecap="round" stroke-linejoin="round"/>
<path d="M17.3364 157.792C16.3914 161.927 16.528 166.188 16.5961 170.406C16.687 176.043 17.0568 181.67 17.4503 187.292C17.7005 190.865 18.0411 194.334 17.5357 197.913C16.9644 201.958 16.1611 205.835 15.3005 209.815C14.9193 211.578 14.7086 213.366 14.3893 215.14C14.3289 215.475 13.6846 216.975 14.3609 216.834C18.699 215.93 23.0715 215.798 27.0746 218.016C28.5563 218.836 29.6718 220.051 31.061 220.977C31.915 221.546 30.5752 218.551 30.4631 218.186C30.0787 216.937 29.7326 215.746 28.9682 214.67C28.0099 213.321 26.636 211.954 26.8184 210.157C27.055 207.824 28.7571 205.46 29.7655 203.394C30.9202 201.028 31.9966 198.634 32.6983 196.09C33.9534 191.541 35.5315 186.754 35.5315 181.996C35.5315 180.771 35.1003 180.179 34.4637 179.134C32.1214 175.289 30.0683 171.269 28.3275 167.118C26.9408 163.811 29.6011 168.074 30.1499 168.755C30.5781 169.286 34.1738 174.345 34.1932 171.688C34.2126 169.032 34.2908 166.363 35.4746 163.914C36.2981 162.211 36.1853 164.704 36.6705 165.11C37.0756 165.45 39.1267 160.592 39.3044 160.27C40.7363 157.673 42.7971 155.586 44.9707 153.607C48.8462 150.077 53.632 146.402 56.5667 142" stroke="black" stroke-width="1.2" stroke-linecap="round" stroke-linejoin="round"/>
<path d="M27.3308 157.023C29.1066 157.958 30.7565 159.036 32.4562 160.099" stroke="black" stroke-width="1.2" stroke-linecap="round" stroke-linejoin="round"/>
<path d="M26.8184 154.973C31.1818 154.542 35.3418 153.535 39.6318 152.667" stroke="black" stroke-width="1.2" stroke-linecap="round" stroke-linejoin="round"/>
<path d="M29.3811 149.848C33.6523 148.492 37.7591 146.842 41.9383 145.235" stroke="black" stroke-width="1.2" stroke-linecap="round" stroke-linejoin="round"/>
<path d="M30.6625 214.94C30.6625 211.406 30.2858 207.658 30.9188 204.177" stroke="black" stroke-width="1.2" stroke-linecap="round" stroke-linejoin="round"/>
<path d="M13.7487 218.528C12.3183 219.714 11.0057 221.144 10.047 222.742C9.16402 224.214 8.49232 225.794 7.05722 226.842C5.11762 228.26 2.20893 229.591 1.09185 231.825C0.0237268 233.962 8.61024 232.262 9.27822 232.11C11.8147 231.535 14.3385 230.714 16.6815 229.604C17.6669 229.138 18.9054 227.175 20.1412 227.896C21.8159 228.873 20.2152 230.819 22.775 230.032C24.1606 229.605 25.4645 229.292 26.8753 228.978C27.5512 228.828 28.18 228.343 28.8686 228.266C30.4394 228.092 29.3811 224.002 29.3811 222.885" stroke="black" stroke-width="1.2" stroke-linecap="round" stroke-linejoin="round"/>
<path d="M21.4368 226.216C23.1009 225.535 24.819 224.858 26.5621 224.422" stroke="black" stroke-width="1.2" stroke-linecap="round" stroke-linejoin="round"/>
<path d="M11.4424 223.141C15.9581 223.743 19.0274 222.327 22.704 219.937C23.6294 219.336 23.7937 217.99 24.7684 217.503" stroke="black" stroke-width="1.2" stroke-linecap="round" stroke-linejoin="round"/>
<path d="M37.5667 168C36.4486 171.354 35.7381 174.525 35.5315 178.037" stroke="black" stroke-width="1.2" stroke-linecap="round" stroke-linejoin="round"/>
<path d="M37.5667 168C42.4042 170.998 47.1208 171.979 52.7017 172.656" stroke="black" stroke-width="1.2" stroke-linecap="round" stroke-linejoin="round"/>
<path d="M77.8159 169.324C81.7914 167.45 86.2827 166.917 90.6294 166.762" stroke="black" stroke-width="1.2" stroke-linecap="round" stroke-linejoin="round"/>
<path d="M51.4201 141.135C49.1537 141.135 46.9743 141.038 44.7571 140.622" stroke="black" stroke-width="1.2" stroke-linecap="round" stroke-linejoin="round"/>
<path d="M60.646 137.291C62.9693 135.252 65.3156 133.258 67.5653 131.14" stroke="black" stroke-width="1.2" stroke-linecap="round" stroke-linejoin="round"/>
<path d="M59.3645 134.984C61.0457 133.049 62.8608 131.337 64.7461 129.603" stroke="black" stroke-width="1.2" stroke-linecap="round" stroke-linejoin="round"/>
<path d="M58.5957 115.252C58.847 115.564 61.5639 118.801 61.9557 118.654C62.5241 118.441 63.1074 117.249 63.4933 116.818C64.4274 115.774 65.3087 114.912 66.0275 113.714" stroke="black" stroke-width="1.2" stroke-linecap="round" stroke-linejoin="round"/>
<path d="M56.5667 142C55.641 149.257 54.7516 157.422 54.7516 164.74C54.7516 167.573 54.967 170.541 54.3814 173.339C53.5032 177.535 52.9517 181.736 52.1889 185.953C51.679 188.773 51.1638 191.478 51.1638 194.353C51.1638 195.73 50.8852 197.069 50.9076 198.454C50.9321 199.976 51.4479 201.501 51.0215 203.024C50.5708 204.633 50.5741 206.31 50.1245 207.921C49.4645 210.286 48.9861 212.65 48.4873 215.054C48.0064 217.371 47.8708 219.766 47.4622 222.101C47.1374 223.957 46.7846 225.842 46.551 227.711C46.2451 230.158 46.2198 232.937 45.6541 235.314C45.3957 236.398 44.8566 238.794 45.5259 239.798" stroke="black" stroke-width="1.2" stroke-linecap="round" stroke-linejoin="round"/>
<path d="M47.8323 240.567C49.9802 240.567 51.9551 241.336 54.0397 241.336C55.723 241.336 55.583 239.459 56.1468 238.033C58.374 232.399 60.004 226.575 61.9128 220.849C66.0653 208.391 69.3081 195.614 73.089 183.077C73.8207 180.651 74.7425 178.36 75.3954 175.902C76.0885 173.293 76.2583 170.622 76.5913 167.958C77.2246 162.891 77.2538 157.639 77.5452 152.539C77.6565 150.591 77.5595 148.608 77.5595 146.659C77.5595 144.886 78.1406 143.17 78.3283 141.434C78.6371 138.577 78.9722 135.615 79.8659 132.934" stroke="black" stroke-width="1.2" stroke-linecap="round" stroke-linejoin="round"/>
<path d="M56.2893 230.06C57.8851 223.725 59.7006 217.441 61.2438 211.096C62.47 206.055 63.5165 200.952 64.8886 195.948C65.9894 191.933 67.0378 187.917 68.1916 183.917C69.285 180.127 69.1704 175.925 69.8716 172.029C70.4435 168.852 70.3889 165.763 70.6973 162.576C70.9997 159.451 71.51 156.446 71.6797 153.308C71.9216 148.833 73.4593 144.36 73.4593 139.853" stroke="black" stroke-width="1.2" stroke-linecap="round" stroke-linejoin="round"/>
<path d="M19.1304 160.099C19.4949 164.61 19.8992 169.154 19.8992 173.681" stroke="black" stroke-width="1.2" stroke-linecap="round" stroke-linejoin="round"/>
<path d="M45.7822 241.848C45.7822 244.428 45.5711 246.978 46.2378 249.423C46.4623 250.246 47.1972 250.305 48.0887 250.305" stroke="black" stroke-width="1.2" stroke-linecap="round" stroke-linejoin="round"/>
<path d="M47.3198 245.693C48.5934 247.577 47.8145 249.379 48.6012 251.302C49.1799 252.717 51.0163 253.691 52.3171 254.263C53.4019 254.741 58.1506 256.289 58.738 254.747C59.178 253.592 59.0844 251.452 59.1082 250.191C59.1317 248.946 59.1052 247.469 58.2113 246.476C57.0177 245.149 55.0079 243.239 55.0079 241.336" stroke="black" stroke-width="1.2" stroke-linecap="round" stroke-linejoin="round"/>
<path d="M48.0886 240.567C48.6494 242.744 49.6827 245.528 52.3171 245.892C53.8738 246.107 54.7355 245.477 55.2642 244.155" stroke="black" stroke-width="1.2" stroke-linecap="round" stroke-linejoin="round"/>
<path d="M73.5173 102.396C75.4844 103.119 77.3598 103.257 79.4459 103.352" stroke="black" stroke-width="1.2" stroke-linecap="round" stroke-linejoin="round"/>
<path d="M73.3262 96.2759C74.7105 94.3312 76.0105 92.3279 77.3423 90.3473" stroke="black" stroke-width="1.2" stroke-linecap="round" stroke-linejoin="round"/>
<path d="M32.0665 96C30.5351 96.2756 28.7255 97.1321 27.534 98.1219C26.8889 98.6579 28.0372 98.2849 28.1621 98.2408C29.0918 97.9122 30.0166 97.5687 30.9461 97.2392C31.7935 96.9389 32.5243 96.8699 31.676 97.7315C29.5471 99.8937 28.07 102.87 26.5664 105.472" stroke="black" stroke-width="1.2" stroke-linecap="round" stroke-linejoin="round"/>
</svg>
