<svg width="263" height="262" viewBox="0 0 263 262" fill="none" xmlns="http://www.w3.org/2000/svg">
<path fill-rule="evenodd" clip-rule="evenodd" d="M176.134 49.0695C195.225 56.2899 212.839 68.678 222.615 86.5906C232.906 105.448 236.567 128.295 230.631 148.927C224.864 168.974 209.005 184.61 191.259 195.581C175.432 205.366 156.298 203.819 137.848 206.286C118.398 208.887 98.4422 218.485 80.5604 210.384C62.0675 202.007 49.3893 183.21 43.826 163.694C38.6216 145.438 47.7405 127.285 51.5733 108.701C55.4934 89.6926 51.5851 66.3452 66.4711 53.8921C81.3423 41.4515 103.645 49.7781 123.026 48.9258C141.155 48.1286 159.157 42.6486 176.134 49.0695Z" fill="#F0F5FA"/>
</svg>
