<svg width="263" height="262" viewBox="0 0 263 262" fill="none" xmlns="http://www.w3.org/2000/svg">
<path fill-rule="evenodd" clip-rule="evenodd" d="M176.134 49.1295C195.226 56.3499 212.839 68.7381 222.615 86.6507C232.907 105.508 236.567 128.355 230.631 148.987C224.864 169.034 209.005 184.67 191.259 195.641C175.432 205.426 156.299 203.879 137.849 206.346C118.398 208.947 98.4425 218.545 80.5607 210.444C62.0677 202.067 49.3895 183.27 43.8262 163.754C38.6219 145.498 47.7407 127.345 51.5735 108.761C55.4937 89.7527 51.5854 66.4052 66.4714 53.9522C81.3426 41.5115 103.646 49.8382 123.027 48.9859C141.155 48.1886 159.157 42.7087 176.134 49.1295Z" fill="#F0F5FA"/>
<path d="M215.362 180.266C211.047 189.805 198.043 194.131 188.839 189.66C179.471 185.11 184.183 154.714 185.4 146.805C185.839 143.956 188.195 130.043 192.707 130.043C202.741 130.043 214.257 162.993 214.257 173.636" stroke="black" stroke-width="1.2" stroke-linecap="round" stroke-linejoin="round"/>
<path d="M210.389 150.428C223.552 143.204 241.052 134.403 248.24 134.403C251.249 134.403 253.968 138.94 253.316 141.704C250.552 148.704 229.052 167.704 218.125 177.504" stroke="black" stroke-width="1.2" stroke-linecap="round" stroke-linejoin="round"/>
<path d="M205.499 142.03C216.552 137.704 233.052 129.371 238.052 130.705C239.803 131.172 244.052 132.205 246.383 132.768" stroke="black" stroke-width="1.2" stroke-linecap="round" stroke-linejoin="round"/>
<path d="M243.898 141.126C242.835 146.116 249.067 146.024 249.533 141.829C249.883 138.678 246.088 138.67 244.5 140.06" stroke="black" stroke-width="1.2" stroke-linecap="round" stroke-linejoin="round"/>
<path d="M120.122 105.012C119.059 110.001 125.29 109.909 125.756 105.714C126.106 102.563 122.312 102.556 120.724 103.945" stroke="black" stroke-width="1.2" stroke-linecap="round" stroke-linejoin="round"/>
<path d="M183.786 154.844C176.287 150.178 173.84 146.137 168.16 154.941C165.098 159.688 162.805 176.693 167.552 181.704C171.806 186.194 179.998 184.964 183.786 181.176" stroke="black" stroke-width="1.2" stroke-linecap="round" stroke-linejoin="round"/>
<path d="M166.424 158.027C164.202 154.351 161.466 151.856 157.792 149.651C153.608 147.141 141.597 142.718 138.228 148.494C134.399 155.057 136.432 165.488 137.183 172.623C138.539 185.51 159.583 189.94 165.556 177.993" stroke="black" stroke-width="1.2" stroke-linecap="round" stroke-linejoin="round"/>
<path d="M136.62 150.504C130.633 144.517 112.315 130.371 109.87 146.067C108.863 152.538 106.791 167.262 112.185 172.656C116.46 176.93 134.21 185.224 137.488 175.389" stroke="black" stroke-width="1.2" stroke-linecap="round" stroke-linejoin="round"/>
<path d="M110.578 141.533C108.701 137.333 105.478 134.899 101.575 132.756C99.8867 131.829 98.0087 130.299 95.981 130.248C93.9321 130.197 92.8895 130.341 91.2548 131.567C90.2084 132.351 89.8839 133.385 89.5829 134.621C88.703 138.233 87.9922 141.856 87.4609 145.536C86.7546 150.43 86.367 155.11 87.1555 159.972C87.6527 163.038 88.6145 165.83 91.5602 167.303C96.4296 169.737 102.027 169.05 106.816 166.997" stroke="black" stroke-width="1.2" stroke-linecap="round" stroke-linejoin="round"/>
<path d="M90.3224 131.695C88.9594 129.002 86.5998 124.985 83.5225 123.899C82.0281 123.371 79.7121 122.302 78.2336 123.143C76.1219 124.344 75.7564 128.169 75.1471 130.248C74.1107 133.784 73.2779 137.743 72.8965 141.405C72.6258 144.004 72.6714 146.592 72.6714 149.202C72.6714 151.161 72.2836 153.119 73.7646 154.651C75.7097 156.663 77.6548 157.448 80.4681 157.448C81.351 157.448 84.0364 157.867 84.5352 156.87" stroke="black" stroke-width="1.2" stroke-linecap="round" stroke-linejoin="round"/>
<path d="M81.3522 123.014C78.9934 112.989 74.1858 98.5595 65.7107 91.7794C60.6795 87.7545 56.9682 117.764 56.6279 121.021C55.8265 128.692 55.691 136.857 56.8209 144.427C58.0109 152.4 65.3315 153.687 71.8033 153.687" stroke="black" stroke-width="1.2" stroke-linecap="round" stroke-linejoin="round"/>
<path d="M81.3523 113.755C95.7364 108.133 111.62 99.8851 127.007 97.6148C132.735 96.7698 131.019 107.121 129.145 109.607C122.655 118.217 113.525 123.791 105 130.06" stroke="black" stroke-width="1.2" stroke-linecap="round" stroke-linejoin="round"/>
<path d="M78 107.06C90 102.06 101.946 97.1057 113.729 94.5282C117.696 93.6603 120 93.56 126 96.0601" stroke="black" stroke-width="1.2" stroke-linecap="round" stroke-linejoin="round"/>
<path d="M157.342 154.576C158.558 156.291 159.585 158.054 160.478 159.951" stroke="black" stroke-width="1.2" stroke-linecap="round" stroke-linejoin="round"/>
<path d="M84.772 122.771C88.8728 122.267 90.7164 124.765 93.7312 127.026" stroke="black" stroke-width="1.2" stroke-linecap="round" stroke-linejoin="round"/>
<path d="M97.5389 128.146C102.844 128.915 108.3 131.35 111.65 135.537" stroke="black" stroke-width="1.2" stroke-linecap="round" stroke-linejoin="round"/>
<path d="M113.666 137.329C117.992 135.288 123.462 136.612 127.751 138.126C129.958 138.904 132.001 139.578 134.048 140.689C134.941 141.174 135.767 142.033 136.238 142.929C136.485 143.399 137.032 143.817 137.184 144.273" stroke="black" stroke-width="1.2" stroke-linecap="round" stroke-linejoin="round"/>
<path d="M147.263 144.273C150.836 143.699 154.476 143.585 158.039 144.298C160.301 144.75 163.192 145.549 164.945 147.185C165.322 147.537 167.206 150.32 167.197 150.32" stroke="black" stroke-width="1.2" stroke-linecap="round" stroke-linejoin="round"/>
<path d="M177.5 148.081C179.437 148.565 181.369 149.033 183.324 149.424" stroke="black" stroke-width="1.2" stroke-linecap="round" stroke-linejoin="round"/>
<path d="M63.4937 105.748C63.2133 107.395 63.0057 109.02 62.8218 110.676" stroke="black" stroke-width="1.2" stroke-linecap="round" stroke-linejoin="round"/>
<path d="M206.842 172.524C207.087 170.213 206.882 167.898 206.842 165.581" stroke="black" stroke-width="1.2" stroke-linecap="round" stroke-linejoin="round"/>
</svg>
