<svg width="517" height="475" viewBox="0 0 517 475" fill="none" xmlns="http://www.w3.org/2000/svg">
<path d="M390.175 56.0937L439.264 6.77042M400.728 98.792L508.046 81.1451M398.197 141.217L492.671 168.473" stroke="black" stroke-width="1.2" stroke-linecap="round"/>
<path d="M306 392.5L325.5 474M334 378.5L404 440M364 341L434.5 367.5" stroke="black" stroke-width="1.2" stroke-linecap="round"/>
<path d="M78 362L15 378M109.5 384L44 455M135 401L109.5 464.5" stroke="black" stroke-width="1.2" stroke-linecap="round"/>
<path d="M121 6L148.5 68M48.5 15L121 97M1 81L89.5 122.5" stroke="black" stroke-width="1.2" stroke-linecap="round"/>
</svg>
