<svg width="278" height="117" viewBox="0 0 278 117" fill="none" xmlns="http://www.w3.org/2000/svg">
<path d="M154.5 14V1M151 15.5L145.5 9M149.5 19L144 22.5M159 14L162.5 9M160.5 19L167.5 21" stroke="black" stroke-width="1.2" stroke-linecap="round"/>
<path d="M124 51L122.5 38.5M120.5 54L114 49.5M118 59.5L109 63.5M129.5 54L136 47M129.5 59.5L134 63.5" stroke="black" stroke-width="1.2" stroke-linecap="round"/>
<path d="M248 108L241.5 116M248 103L238.5 100.5M253 100.5V84M258 103L268 95.5M258 108L276.5 116" stroke="black" stroke-width="1.2" stroke-linecap="round"/>
<path d="M24.5 86.5L11 93M26.5 76.5L1 72.5M31 69L21 55.5" stroke="black" stroke-width="1.2" stroke-linecap="round"/>
<path d="M193.037 81.8322L185.526 74.2106M209.033 76.7948L212.249 66.311M217.099 80.8188L227.881 70.3905M191.368 88.5936L182.935 89.6552M201.096 77.794L194.879 60.4346" stroke="black" stroke-width="1.2" stroke-linecap="round"/>
</svg>
