<svg width="568" height="299" viewBox="0 0 568 299" fill="none" xmlns="http://www.w3.org/2000/svg">
<path d="M565 0C565 50 531 112 450 159C309.708 240.404 106 117 3 297" stroke="#DFE8F0" stroke-width="5" stroke-dasharray="25 26"/>
</svg>
