<svg width="681" height="221" viewBox="0 0 681 221" fill="none" xmlns="http://www.w3.org/2000/svg">
<path d="M3 221C3.00006 62 96 3 206 3C425.228 3 583 242 678 50" stroke="#DFE8F0" stroke-width="5" stroke-dasharray="25 26"/>
</svg>
