<svg width="314" height="132" viewBox="0 0 314 132" fill="none" xmlns="http://www.w3.org/2000/svg">
<path d="M31.9208 77.0669C25.8038 84.7274 7.15487 102.395 1.28586 110.245L0.999878 116.036C11.0796 104.853 45.0921 69.8234 52.3573 60.5704C59.6224 51.3174 85.6929 24.1701 97.8201 11.7531L94.4476 9.0835C86.2097 19.0764 76.4219 27.4789 68.148 37.3315C56.5968 51.0865 43.1525 63.0011 31.9208 77.0669Z" stroke="black" stroke-width="1.2" stroke-linecap="round" stroke-linejoin="round"/>
<path d="M95.5892 14.8177C113.086 45.5623 144.504 22.2676 166.226 13.2611C191.742 2.68198 215.229 13.2727 235.184 28.0472" stroke="black" stroke-width="1.2" stroke-linecap="round" stroke-linejoin="round"/>
<path d="M149.908 40.2749C151.403 46.2251 152.641 51.1559 154.054 56.7806" stroke="black" stroke-width="1.2" stroke-linecap="round" stroke-linejoin="round"/>
<path d="M151.802 47.8181C156.65 45.7467 161.982 45.9441 162.295 51.2996C162.529 55.2913 156.934 56.0131 154.238 56.6903" stroke="black" stroke-width="1.2" stroke-linecap="round" stroke-linejoin="round"/>
<path d="M149.908 40.2749L157.244 38.4323" stroke="black" stroke-width="1.2" stroke-linecap="round" stroke-linejoin="round"/>
<path d="M132.465 44.522C133.141 50.6392 133.702 55.7084 134.341 61.4909" stroke="black" stroke-width="1.2" stroke-linecap="round" stroke-linejoin="round"/>
<path d="M133.323 52.277C138.422 50.8773 143.695 51.7984 143.278 57.1639C142.967 61.1631 137.309 61.1199 134.537 61.4264" stroke="black" stroke-width="1.2" stroke-linecap="round" stroke-linejoin="round"/>
<path d="M132.465 44.522L140.007 43.688" stroke="black" stroke-width="1.2" stroke-linecap="round" stroke-linejoin="round"/>
<path d="M168.617 41.0604C169.531 43.9702 171.297 51.2243 176.814 49.4649C184.277 47.0851 180.53 33.5065 174.002 33.1596C170.305 32.9632 168.867 35.8295 168.376 38.4907" stroke="black" stroke-width="1.2" stroke-linecap="round" stroke-linejoin="round"/>
<path d="M111.89 49.5839C111.516 52.6711 110.107 60.1517 115.971 60.8369C123.903 61.7637 126.132 47.5755 120.214 44.5089C116.862 42.7721 114.322 44.8302 112.747 47.0959" stroke="black" stroke-width="1.2" stroke-linecap="round" stroke-linejoin="round"/>
<path d="M100.856 37.0195C98.5439 41.6598 90.3835 54.9144 93.1349 50.5205" stroke="black" stroke-width="1.2" stroke-linecap="round" stroke-linejoin="round"/>
<path d="M100.9 36.559C103.875 37.7849 108.08 41.4978 105.89 44.6119C104.55 46.5181 100.834 47.7905 96.642 45.1659" stroke="black" stroke-width="1.2" stroke-linecap="round" stroke-linejoin="round"/>
<path d="M69.5276 47.4011C85.3421 71.8303 114.41 78.9806 135.238 75.1755C162.538 70.1881 177.601 59.8863 206.423 65.0748C235.498 70.3091 259.304 101.347 290.54 90.7593C254.528 93.0002 235.907 43.6017 197.964 41.7282C194.677 41.5659 192.986 37.5103 195.239 36.087C211.514 25.8037 239.796 50.5009 254.192 59.4362C272.67 70.9043 290.371 76.169 310.773 67.2129C294.185 68.9236 280.197 62.4294 267.032 52.319C258.862 46.0451 247.218 39.5061 240.356 31.9315" stroke="black" stroke-width="1.2" stroke-linecap="round" stroke-linejoin="round"/>
</svg>
