<svg width="206" height="174" viewBox="0 0 206 174" fill="none" xmlns="http://www.w3.org/2000/svg">
<path d="M72.1382 61.8686C78.2601 60.8279 92.8536 66.6888 99.3851 69.7494C104.058 71.7837 161.076 67.0613 189 64.4458L189 106.88C164.2 104.912 119.135 101.003 99.7031 99.2943C97.4684 99.2168 98.547 100.373 93.5066 103.778C89.4743 106.502 87.3665 108.786 86.8167 109.587C79.5946 117.839 75.4106 115.904 72.5132 115.579C69.6158 115.255 62.3794 117.465 59.7288 116.479C57.6082 115.689 54.7564 113.621 53.5955 112.686C51.1528 112.154 48.8662 112.65 47.1768 110.674C46.2164 109.55 46.4358 108.157 47.0913 106.88C47.7273 105.642 48.7739 104.513 49.5521 103.846C47.8899 103.159 46.3233 102.433 45.46 102.112C43.472 101.372 31.6357 100.738 29.3493 99.3449C27.0628 97.9522 20.2011 94.9712 17.7584 94.4391C15.9432 94.0436 11.6153 92.8016 9.25096 90.633C8.43373 89.8834 7.85109 89.0231 7.68792 88.0488C7.3687 86.1429 8.37779 84.947 9.54238 84.2622C10.2319 83.8567 10.9759 83.6304 11.5311 83.5419C10.3119 83.094 9.17972 82.494 8.36615 81.6906C7.50789 80.843 7.00424 79.7691 7.12724 78.4085C7.22909 77.282 8.10874 76.5347 9.34913 76.0538C11.4219 75.2503 14.5019 75.1905 16.6431 75.3475C15.2277 75.1543 13.4404 74.4923 12.4194 73.2388C11.8017 72.4805 11.4645 71.5057 11.6599 70.2873C11.7736 69.5785 12.0943 69.0365 12.5476 68.6217C14.3709 66.953 18.3386 67.3419 19.5977 67.2064C20.8553 67.071 25.4747 67.6339 27.6272 67.9323C27.2219 67.6058 26.6599 67.041 26.2348 66.3701C25.7467 65.6 25.439 64.69 25.7554 63.8401C25.928 63.2061 26.2602 62.717 26.7191 62.3407C28.9876 60.4807 34.3515 61.378 38.8253 61.1609C43.1284 60.9521 50.8825 61.8773 54.2217 62.366C57.8205 61.8196 64.4859 63.1694 72.1382 61.8686Z" fill="white"/>
<path d="M27.6272 67.9323C30.2344 68.0227 36.0698 68.3593 38.5541 68.9824C41.6595 69.7613 48.9876 71.3579 52.1317 71.0194M27.6272 67.9323C25.4747 67.6339 20.8553 67.071 19.5977 67.2064C18.3386 67.3419 14.3709 66.953 12.5476 68.6217M27.6272 67.9323C27.2219 67.6058 26.6599 67.041 26.2348 66.3701M55.4838 71.1357C56.3109 70.9406 58.0978 70.5998 58.6279 70.7972M17.2997 75.4051C18.03 75.4305 19.6662 75.5111 21.5918 75.6413M17.2997 75.4051C15.8298 75.3542 13.6065 74.6963 12.4194 73.2388M17.2997 75.4051C15.1768 75.1863 11.645 75.1638 9.34913 76.0538M52.4844 80.2051C49.5483 80.9982 45.7802 79.9726 44.0002 79.6871C43.0677 79.5376 40.1813 79.0747 37.4236 78.5315M37.4236 78.5315C34.917 78.0377 32.5168 77.4777 31.7867 77.0262C30.7544 76.3879 25.5589 75.9094 21.5918 75.6413M37.4236 78.5315C35.1463 78.7617 29.9292 78.9755 27.2785 77.9886C24.6278 77.0017 22.3829 76.0125 21.5918 75.6413M49.9927 93.9906C49.5638 93.4537 48.441 92.2811 47.3808 91.8864C46.0554 91.3929 34.2579 89.6414 32.4779 89.3559C30.6978 89.0705 18.9778 85.0842 15.4177 84.5133C14.2078 84.3192 12.8208 84.0157 11.5311 83.5419M11.5311 83.5419C10.3119 83.094 9.17972 82.494 8.36615 81.6906M11.5311 83.5419C10.9759 83.6304 10.2319 83.8567 9.54238 84.2622M74.9416 110.07C73.995 110.116 72.3401 109.805 70.5259 109.341M70.5259 109.341C67.1858 108.486 63.3058 107.114 62.3122 106.5C60.7789 105.552 57.2188 104.981 55.1921 105.358C54.0454 105.571 51.7176 104.741 49.5521 103.846M70.5259 109.341L73.0841 112.019M49.5521 103.846C47.8899 103.159 46.3233 102.433 45.46 102.112C43.472 101.372 31.6357 100.738 29.3493 99.3449C27.0628 97.9522 20.2011 94.9712 17.7584 94.4391C15.9432 94.0436 11.6153 92.8016 9.25096 90.633M49.5521 103.846C48.7739 104.513 47.7273 105.642 47.0913 106.88M53.5955 112.686C51.1528 112.154 48.8662 112.65 47.1768 110.674C46.2165 109.55 46.4358 108.157 47.0913 106.88M53.5955 112.686C54.7564 113.621 57.6082 115.689 59.7288 116.479C62.3794 117.465 69.6158 115.255 72.5132 115.579C75.4106 115.904 79.5946 117.839 86.8167 109.587C87.3665 108.786 89.4743 106.502 93.5066 103.778C98.547 100.373 97.4684 99.2168 99.7031 99.2943C119.135 101.003 164.2 104.912 189 106.88L189 64.4458C161.076 67.0613 104.058 71.7837 99.3851 69.7494C92.8536 66.6888 78.2601 60.8279 72.1382 61.8686C64.4859 63.1694 57.8205 61.8196 54.2217 62.366C50.8825 61.8773 43.1284 60.9521 38.8253 61.1609C34.3515 61.378 28.9876 60.4807 26.7191 62.3407M53.5955 112.686C54.9331 110.802 55.5049 107.004 47.0913 106.88M39.8652 63.4344C40.0603 64.2616 40.3102 66.0902 39.749 66.7866M49.6747 64.4458C49.7876 65.4938 49.8313 67.6731 49.1038 68.0058M38.4379 72.3347C38.0961 73.5907 37.2304 76.1859 36.5029 76.5186M25.7697 69.8816C25.8825 70.9297 25.9263 73.109 25.1988 73.4418M12.5476 68.6217C12.0943 69.0365 11.7736 69.5785 11.6599 70.2873C11.4645 71.5057 11.8017 72.4805 12.4194 73.2388M12.5476 68.6217C14.7794 68.204 19.2136 67.9319 19.0961 70.1849C18.9493 73.0012 17.0631 73.8639 12.4194 73.2388M26.7191 62.3407C26.2602 62.717 25.928 63.2061 25.7554 63.8401C25.439 64.69 25.7467 65.6 26.2348 66.3701M26.7191 62.3407C28.4376 62.0909 31.7681 62.0799 31.3423 64.0339C30.9165 65.988 27.7599 66.4056 26.2348 66.3701M9.34913 76.0538C8.10874 76.5347 7.22909 77.282 7.12724 78.4085C7.00423 79.7691 7.50789 80.843 8.36615 81.6906M9.34913 76.0538C11.1722 76.0326 14.7534 76.5697 14.4941 78.8877C14.2348 81.2057 10.3007 81.7221 8.36615 81.6906M9.54238 84.2622C8.37778 84.947 7.36871 86.1429 7.68792 88.0488C7.85109 89.0231 8.43373 89.8834 9.25096 90.633M9.54238 84.2622C11.9168 85.2553 16.3357 87.7224 15.0161 89.6455C13.6964 91.5687 10.6228 91.1052 9.25096 90.633M20.1869 88.9299C20.2304 89.8263 20.1355 91.7025 19.408 92.0352M20.6719 79.1716C19.9251 79.9428 18.5561 81.7581 19.0553 82.8495M32.7104 82.6519C32.0783 83.6741 30.8973 85.9004 31.2301 86.6279M31.0364 92.2147C30.1834 93.1547 28.6022 95.3074 29.1013 96.3987M55.5653 88.1428C56.6004 88.4026 58.9852 88.8881 60.2428 88.7526M52.9819 98.1217C53.9348 98.6023 56.1134 99.4385 57.2046 98.9394M58.8114 78.4109C60.011 78.2288 62.6753 77.9632 63.7356 78.3579" stroke="black" stroke-width="1.2" stroke-linecap="round" stroke-linejoin="round"/>
</svg>
