<svg width="66" height="72" viewBox="0 0 66 72" fill="none" xmlns="http://www.w3.org/2000/svg">
<path d="M3.86943 53.6021C9.72958 57.8003 19.7816 58.3515 26.1089 55.7935C33.3481 52.8668 38.9435 45.1192 40.857 37.471C43.3377 27.5556 39.7689 12.0958 48.5811 5.07286C55.5967 -0.518171 70.9165 5.18623 61.9796 11.1643C51.1628 18.3998 53.1674 30.7041 51.1963 41.9307C47.104 65.2378 21.9732 73.9694 1.54057 66.1855" stroke="black" stroke-width="1.2" stroke-linecap="round" stroke-linejoin="round"/>
<path d="M51.2913 5.15894C51.4707 9.40899 52.498 12.344 55.9679 14.702" stroke="black" stroke-width="1.2" stroke-linecap="round" stroke-linejoin="round"/>
<path d="M49.4815 20.0913C46.3887 18.0911 45.9934 16.1554 46.1193 12.8696C47.1804 14.2137 55.0051 23.6638 49.4815 20.0913Z" stroke="black" stroke-width="1.2" stroke-linecap="round" stroke-linejoin="round"/>
<path d="M44.4643 23.2617C45.7912 25.2205 48.3183 27.4822 50.0664 28.9715C50.9801 29.75 43.5607 29.1356 44.4643 23.2617Z" stroke="black" stroke-width="1.2" stroke-linecap="round" stroke-linejoin="round"/>
<path d="M49.7128 38.3402C47.1227 38.3342 43.2039 36.9214 43.4213 33.2277C44.7549 34.7825 49.0835 36.4729 49.7128 38.3402Z" stroke="black" stroke-width="1.2" stroke-linecap="round" stroke-linejoin="round"/>
<path d="M46.6049 48.8836C42.4522 47.4535 40.3283 43.9563 41.2795 41.7096C43.5197 45.4623 44.7201 45.9009 46.6049 48.8836Z" stroke="black" stroke-width="1.2" stroke-linecap="round" stroke-linejoin="round"/>
<path d="M41.2091 57.4947C37.7896 55.4917 36.1204 51.7727 36.9778 49.7233C38.7366 53.7085 39.7243 54.312 41.2091 57.4947Z" stroke="black" stroke-width="1.2" stroke-linecap="round" stroke-linejoin="round"/>
<path d="M31.6082 63.9428C28.5262 61.3062 28.0159 57.7315 29.7139 56.2633C30.2276 60.0853 31.1087 60.8677 31.6082 63.9428Z" stroke="black" stroke-width="1.2" stroke-linecap="round" stroke-linejoin="round"/>
<path d="M18.2583 66.6372C17.3546 63.9263 17.4203 60.6063 20.0656 59.4079C19.6138 61.2153 19.1619 65.2818 18.2583 66.6372Z" stroke="black" stroke-width="1.2" stroke-linecap="round" stroke-linejoin="round"/>
<path d="M7.47594 65.5971C6.49345 62.8393 7.29587 61.0983 9.03906 59.0259C9.83471 60.7822 7.55991 65.8329 7.47594 65.5971Z" stroke="black" stroke-width="1.2" stroke-linecap="round" stroke-linejoin="round"/>
</svg>
