<svg width="115" height="163" viewBox="0 0 115 163" fill="none" xmlns="http://www.w3.org/2000/svg">
<path d="M9.93544 28.9833C8.92066 36.8437 9.48867 43.0296 12.2548 50.6195C15.6526 59.9425 24.0352 66.005 33.1291 69.0757C46.9134 73.7301 64.6612 74.809 76.3051 64.588C81.8957 59.6805 84.7962 48.6317 83.6795 41.3766C82.6446 34.6538 77.5893 28.1271 72.9152 23.4554C63.8621 14.407 51.5755 11.3296 39.1357 11.3296C33.2029 11.3296 28.5061 11.8915 23.0488 14.3016C20.616 15.376 18.1852 16.6644 16.0907 18.3138C13.2922 20.5176 12.1036 24.3182 10.4707 27.3784" stroke="black" stroke-width="1.2" stroke-linecap="round" stroke-linejoin="round"/>
<path d="M32.7558 4.76714C33.1386 -0.574739 39.2423 0.763696 43.3833 1.05849C44.5399 1.14082 49.7711 2.59922 49.8729 3.46169C49.9715 4.2963 49.4555 6.84016 50.3492 7.25936C52.0089 8.03777 55.9734 6.13214 57.7617 5.95391C61.4756 5.58376 60.6168 9.74109 63.8346 10.1076C65.4416 10.2906 65.4521 11.7028 66.5138 12.5405C67.6133 13.408 70.2093 12.6474 71.5745 12.8075C73.0078 12.9756 72.2684 15.1878 72.5271 16.2195C72.9662 17.9698 74.3982 17.5842 75.891 17.5842C77.7812 17.5842 78.5476 17.2265 78.9572 19.1864C79.3493 21.0621 81.0009 21.4012 82.2616 22.6577C83.7369 24.1281 82.6984 26.0168 83.7798 27.4938C84.829 28.9268 87.1064 28.6039 87.6498 30.4607C88.0854 31.9493 87.7227 33.4534 88.007 34.9407C88.4354 37.1825 90.2083 37.5919 91.7579 38.8274C93.0829 39.8839 92.619 41.573 91.9365 42.7734C90.455 45.3791 91.0935 45.8887 92.4128 48.2029C93.0934 49.3967 92.7743 50.8982 91.877 51.8819C90.2596 53.655 89.9178 54.138 90.3588 56.5993C90.7389 58.7208 90.8301 60.1051 89.2573 61.6727C88.6898 62.2383 87.0358 62.7628 86.9056 63.5419C86.266 67.3662 84.5358 70.1002 80.5052 71.2855C78.953 71.742 77.223 71.4149 76.159 72.9173C74.9668 74.6006 74.3157 75.3226 72.2294 75.6766C70.5483 75.9618 68.4999 75.2969 67.0496 76.3293C66.0923 77.0108 64.9408 78.5331 63.8941 78.8809C62.0325 79.4993 60.782 79.965 59.3097 81.4324C57.702 83.0348 57.7428 84.3547 55.2016 83.9246C53.6838 83.6677 52.2751 82.8186 50.7362 82.7379C49.436 82.6696 48.1322 83.3002 46.896 83.1829C45.3045 83.0318 43.4027 82.1686 42.1032 81.2544C40.8885 80.3998 40.4799 80.9911 39.0966 81.106C37.7559 81.2174 35.8062 81.5437 34.9289 80.305C33.9996 78.9929 34.514 78.0858 32.7558 77.3974C29.4668 76.1096 25.1972 75.0525 23.5274 72.0569C21.8951 69.1287 17.6927 71.7389 17.6927 68.0813C17.6927 66.1444 14.9293 65.652 13.6441 64.7583C11.7933 63.4714 13.1331 62.4693 12.8999 60.842C12.6185 58.8791 9.24441 57.4034 7.86892 56.2136C6.22936 54.7953 6.71996 54.0676 6.20185 52.2972C5.63182 50.3494 3.39176 49.3544 2.86773 47.5502C2.53915 46.4189 3.28449 45.1759 3.28449 44.0195C3.28449 40.928 0.362602 40.2058 3.16542 37.878C6.11195 35.4308 -1.66906 30.5954 3.04634 28.3838C4.8001 27.5613 4.29616 24.0052 4.35618 22.45C4.43628 20.3744 5.32185 20.4256 7.06515 19.9578C9.46347 19.3142 9.0453 17.7623 9.83367 15.8634C10.3694 14.5731 12.1994 15.1155 13.1678 14.3206C15.9385 12.0466 13.0166 9.29564 17.5141 9.03951C20.2883 8.88151 19.0476 2.82945 22.2771 4.88582C23.5166 5.67506 23.8985 5.12053 24.2716 5.18251C25.4367 5.37604 27.0071 7.79239 28.5286 8.26811C30.5907 8.91288 31.4988 6.20461 32.2199 4.76714" stroke="black" stroke-width="1.2" stroke-linecap="round" stroke-linejoin="round"/>
<path d="M53.3383 86.1214C53.3383 108.982 46.691 135.755 45.5916 158.914C53.3384 152.151 58.6562 142.845 61.3151 139.743C63.1503 147.277 68.0786 161.458 69.735 161.458C75.7596 144.053 76.8255 96.7571 69.2919 79.4741M61.7584 83.9057C63.4249 91.587 66.0364 111.204 63.1503 128.221" stroke="black" stroke-width="1.2" stroke-linecap="round" stroke-linejoin="round"/>
<path d="M73.7234 77.7016C83.3464 97.9825 86.5749 118.472 97.0443 144.522C99.4263 132.792 99.3694 127.221 100.756 118.472C103.415 122.017 109.619 127.778 114.099 132.792C111.391 95.4277 102.528 75.4858 89.2338 64.8501M83.9159 72.8269C87.6089 78.5879 96.7674 94.896 98.54 108.722" stroke="black" stroke-width="1.2" stroke-linecap="round" stroke-linejoin="round"/>
<path d="M29.707 42.3216C31.2277 37.6963 32.7084 33.122 34.4565 28.5768C35.2919 26.4048 34.7158 22.6795 37.6228 22.3161C40.2986 21.9817 42.8758 21.4023 45.4667 21.0568C46.6946 20.8931 49.8984 30.244 50.4321 31.3114C53.8186 38.0844 57.5601 44.8087 60.6506 51.6766C62.1215 54.9451 60.0003 55.1846 56.9806 56.2102C51.682 58.0097 52.5493 57.5663 50.0363 52.5401C47.683 47.8336 45.2697 43.1547 43.0919 38.3636C42.548 37.167 41.9311 34.5403 41.041 33.6501C40.9403 33.5494 38.9348 37.7312 38.6303 38.3636C37.8802 39.9216 36.3568 42.5329 36.1836 44.2645C35.8285 47.8159 30.9905 44.8944 29.707 42.9692" stroke="black" stroke-width="1.2" stroke-linecap="round" stroke-linejoin="round"/>
</svg>
